  _               _     _                              ____                            
 | |       ___   | |_  | |_    ___   _ __   _   _     / ___|   __ _   _ __ ___     ___ 
 | |      / _ \  | __| | __|  / _ \ | '__| | | | |   | |  _   / _` | | '_ ` _ \   / _ \
 | |___  | (_) | | |_  | |_  |  __/ | |    | |_| |   | |_| | | (_| | | | | | | | |  __/
 |_____|  \___/   \__|  \__|  \___| |_|     \__, |    \____|  \__,_| |_| |_| |_|  \___|
                                            |___/                                      